%YAML 1.1
%TAG !u! tag:unity3d.com,2011:
--- !u!114 &11400000
MonoBehaviour:
  m_ObjectHideFlags: 0
  m_CorrespondingSourceObject: {fileID: 0}
  m_PrefabInstance: {fileID: 0}
  m_PrefabAsset: {fileID: 0}
  m_GameObject: {fileID: 0}
  m_Enabled: 1
  m_EditorHideFlags: 0
  m_Script: {fileID: 11500000, guid: 95e66c6366d904e98bc83428217d4fd7, type: 3}
  m_Name: CapsuleMovement
  m_EditorClassIdentifier: 
  _data:
    _json: '{"graph":{"variables":{"Kind":"Flow","collection":{"$content":[],"$version":"A"},"$version":"A"},"controlInputDefinitions":[],"controlOutputDefinitions":[],"valueInputDefinitions":[],"valueOutputDefinitions":[],"title":"CapsuleMovement","summary":null,"pan":{"x":0.0,"y":0.0},"zoom":1.0,"elements":[{"coroutine":false,"defaultValues":{},"position":{"x":-273.0,"y":-100.0},"guid":"8450dd59-ef62-4850-9872-d757bba04f21","$version":"A","$type":"Unity.VisualScripting.Start","$id":"9"},{"chainable":false,"member":{"name":"ClampMagnitude","parameterTypes":["UnityEngine.Vector3","System.Single"],"targetType":"UnityEngine.Vector3","targetTypeName":"UnityEngine.Vector3","$version":"A"},"defaultValues":{"%vector":{"x":0.0,"y":0.0,"z":0.0,"$type":"UnityEngine.Vector3"},"%maxLength":{"$content":0.0,"$type":"System.Single"}},"position":{"x":-85.0,"y":-103.0},"guid":"4d212d93-d58a-4a8a-93e4-80db2a8d1fd6","$version":"A","$type":"Unity.VisualScripting.InvokeMember","$id":"11"},{"specifyFallback":false,"kind":"Object","defaultValues":{"name":{"$content":"MoveSpeed","$type":"System.String"},"object":null},"position":{"x":-59.0,"y":163.0},"guid":"516df8c9-bfc5-4320-b5bd-fcc88ebe2d2d","$version":"A","$type":"Unity.VisualScripting.GetVariable","$id":"14"},{"specifyFallback":false,"kind":"Object","defaultValues":{"name":{"$content":"MoveAxis","$type":"System.String"},"object":null},"position":{"x":-314.0,"y":169.0},"guid":"7182e989-6ad5-462d-8f34-2204ccabadc2","$version":"A","$type":"Unity.VisualScripting.GetVariable","$id":"16"},{"member":{"name":"deltaTime","parameterTypes":null,"targetType":"UnityEngine.Time","targetTypeName":"UnityEngine.Time","$version":"A"},"defaultValues":{},"position":{"x":-212.0,"y":365.0},"guid":"b90ad342-e7f2-46b2-8ed6-16ae4b5c2ce9","$version":"A","$type":"Unity.VisualScripting.GetMember","$id":"18"},{"defaultValues":{},"position":{"x":206.0,"y":307.0},"guid":"ca7dc320-43a4-493a-86e6-357e42dc661b","$version":"A","$type":"Unity.VisualScripting.GenericMultiply","$id":"21"},{"defaultValues":{},"position":{"x":290.0,"y":68.0},"guid":"563215f1-9441-481c-8195-b6b92897c779","$version":"A","$type":"Unity.VisualScripting.GenericMultiply","$id":"23"},{"chainable":false,"member":{"name":"Translate","parameterTypes":["UnityEngine.Vector3"],"targetType":"UnityEngine.Transform","targetTypeName":"UnityEngine.Transform","$version":"A"},"defaultValues":{"target":null,"%translation":{"x":0.0,"y":0.0,"z":0.0,"$type":"UnityEngine.Vector3"}},"position":{"x":494.0,"y":-74.0},"guid":"e80311cf-6e6b-4ed4-abff-b2287077ea32","$version":"A","$type":"Unity.VisualScripting.InvokeMember","$id":"25"},{"sourceUnit":{"$ref":"9"},"sourceKey":"trigger","destinationUnit":{"$ref":"11"},"destinationKey":"enter","guid":"9a963cc0-41c9-4668-86b8-78444294b3cd","$type":"Unity.VisualScripting.ControlConnection"},{"sourceUnit":{"$ref":"11"},"sourceKey":"exit","destinationUnit":{"$ref":"25"},"destinationKey":"enter","guid":"75691c69-8e0e-4c16-89e3-2ca415de58be","$type":"Unity.VisualScripting.ControlConnection"},{"sourceUnit":{"$ref":"16"},"sourceKey":"value","destinationUnit":{"$ref":"11"},"destinationKey":"%vector","guid":"d75393ba-bcc3-4c5b-be45-537f9331d372","$type":"Unity.VisualScripting.ValueConnection"},{"sourceUnit":{"$ref":"14"},"sourceKey":"value","destinationUnit":{"$ref":"21"},"destinationKey":"a","guid":"eff0cc7f-1c74-4488-805c-e477b67d52a8","$type":"Unity.VisualScripting.ValueConnection"},{"sourceUnit":{"$ref":"18"},"sourceKey":"value","destinationUnit":{"$ref":"21"},"destinationKey":"b","guid":"6446a451-230a-4c80-9830-fdf5e4b7a8f7","$type":"Unity.VisualScripting.ValueConnection"},{"sourceUnit":{"$ref":"11"},"sourceKey":"result","destinationUnit":{"$ref":"23"},"destinationKey":"a","guid":"c21bbf68-73c4-4962-bfb5-d94a106f174b","$type":"Unity.VisualScripting.ValueConnection"},{"sourceUnit":{"$ref":"21"},"sourceKey":"product","destinationUnit":{"$ref":"23"},"destinationKey":"b","guid":"e37c4048-a29e-4bdd-8fb9-ac91c6d0ea41","$type":"Unity.VisualScripting.ValueConnection"},{"sourceUnit":{"$ref":"23"},"sourceKey":"product","destinationUnit":{"$ref":"25"},"destinationKey":"%translation","guid":"2a8189ae-e2a0-4c03-8d9f-33a9993db0e8","$type":"Unity.VisualScripting.ValueConnection"}],"$version":"A"}}'
    _objectReferences: []
