%YAML 1.1
%TAG !u! tag:unity3d.com,2011:
--- !u!114 &11400000
MonoBehaviour:
  m_ObjectHideFlags: 0
  m_CorrespondingSourceObject: {fileID: 0}
  m_PrefabInstance: {fileID: 0}
  m_PrefabAsset: {fileID: 0}
  m_GameObject: {fileID: 0}
  m_Enabled: 1
  m_EditorHideFlags: 0
  m_Script: {fileID: 11500000, guid: 95e66c6366d904e98bc83428217d4fd7, type: 3}
  m_Name: CapsuleRotation
  m_EditorClassIdentifier: 
  _data:
    _json: '{"graph":{"variables":{"Kind":"Flow","collection":{"$content":[],"$version":"A"},"$version":"A"},"controlInputDefinitions":[],"controlOutputDefinitions":[],"valueInputDefinitions":[],"valueOutputDefinitions":[],"title":"CapsuleRotation","summary":null,"pan":{"x":0.0,"y":0.0},"zoom":1.0,"elements":[{"coroutine":false,"defaultValues":{},"position":{"x":-590.0,"y":-255.0},"guid":"b9078a0d-2101-4d71-84d6-b47f91efa29e","$version":"A","$type":"Unity.VisualScripting.Start","$id":"9"},{"specifyFallback":false,"kind":"Object","defaultValues":{"name":{"$content":"RotationAxis","$type":"System.String"},"object":null},"position":{"x":-548.0,"y":-20.0},"guid":"6c906323-2608-4b4f-87ad-c3bd6f989c5f","$version":"A","$type":"Unity.VisualScripting.GetVariable","$id":"11"},{"specifyFallback":false,"kind":"Object","defaultValues":{"name":{"$content":"RotationSpeed","$type":"System.String"},"object":null},"position":{"x":-265.0,"y":-19.0},"guid":"93327ce4-c99d-4b32-856c-4f91648391cd","$version":"A","$type":"Unity.VisualScripting.GetVariable","$id":"13"},{"chainable":false,"member":{"name":"ClampMagnitude","parameterTypes":["UnityEngine.Vector3","System.Single"],"targetType":"UnityEngine.Vector3","targetTypeName":"UnityEngine.Vector3","$version":"A"},"defaultValues":{"%vector":{"x":0.0,"y":0.0,"z":0.0,"$type":"UnityEngine.Vector3"},"%maxLength":{"$content":0.0,"$type":"System.Single"}},"position":{"x":-222.0,"y":-252.0},"guid":"3d74c6af-a74e-4b26-af2f-26bd3e98b03d","$version":"A","$type":"Unity.VisualScripting.InvokeMember","$id":"15"},{"member":{"name":"deltaTime","parameterTypes":null,"targetType":"UnityEngine.Time","targetTypeName":"UnityEngine.Time","$version":"A"},"defaultValues":{},"position":{"x":-510.0,"y":280.0},"guid":"f4977e50-af55-4e23-b2f9-a32d08176328","$version":"A","$type":"Unity.VisualScripting.GetMember","$id":"18"},{"defaultValues":{},"position":{"x":-46.0,"y":260.0},"guid":"69ca3f8f-8da0-4ad2-84bd-f95bb3c1b5fe","$version":"A","$type":"Unity.VisualScripting.GenericMultiply","$id":"21"},{"defaultValues":{},"position":{"x":196.0,"y":33.0},"guid":"3b198e27-6463-4c0a-906b-36a788d9ad81","$version":"A","$type":"Unity.VisualScripting.GenericMultiply","$id":"23"},{"chainable":false,"member":{"name":"Rotate","parameterTypes":["UnityEngine.Vector3"],"targetType":"UnityEngine.Transform","targetTypeName":"UnityEngine.Transform","$version":"A"},"defaultValues":{"target":null,"%eulers":{"x":0.0,"y":0.0,"z":0.0,"$type":"UnityEngine.Vector3"}},"position":{"x":410.0,"y":-253.0},"guid":"e71f8abb-ee12-4155-b67b-1f085e8a5b4b","$version":"A","$type":"Unity.VisualScripting.InvokeMember","$id":"25"},{"sourceUnit":{"$ref":"9"},"sourceKey":"trigger","destinationUnit":{"$ref":"15"},"destinationKey":"enter","guid":"b8b36062-d94d-4852-ae5c-6a9ead924ba0","$type":"Unity.VisualScripting.ControlConnection"},{"sourceUnit":{"$ref":"15"},"sourceKey":"exit","destinationUnit":{"$ref":"25"},"destinationKey":"enter","guid":"a753c47e-72f7-4315-b9c6-89c077f94802","$type":"Unity.VisualScripting.ControlConnection"},{"sourceUnit":{"$ref":"11"},"sourceKey":"value","destinationUnit":{"$ref":"15"},"destinationKey":"%vector","guid":"a377f836-df50-450a-af53-b5d907b89a07","$type":"Unity.VisualScripting.ValueConnection"},{"sourceUnit":{"$ref":"13"},"sourceKey":"value","destinationUnit":{"$ref":"21"},"destinationKey":"a","guid":"8dbc8c14-cb18-45ed-97a9-7b0803920e47","$type":"Unity.VisualScripting.ValueConnection"},{"sourceUnit":{"$ref":"18"},"sourceKey":"value","destinationUnit":{"$ref":"21"},"destinationKey":"b","guid":"5660d5bf-5c9e-47b1-be79-4e8c10768b87","$type":"Unity.VisualScripting.ValueConnection"},{"sourceUnit":{"$ref":"15"},"sourceKey":"result","destinationUnit":{"$ref":"23"},"destinationKey":"a","guid":"b977cbf3-940d-4305-a26e-b1b290e67a8c","$type":"Unity.VisualScripting.ValueConnection"},{"sourceUnit":{"$ref":"21"},"sourceKey":"product","destinationUnit":{"$ref":"23"},"destinationKey":"b","guid":"1f4d97a8-2be0-4a0c-9293-25ed21cc718f","$type":"Unity.VisualScripting.ValueConnection"},{"sourceUnit":{"$ref":"23"},"sourceKey":"product","destinationUnit":{"$ref":"25"},"destinationKey":"%eulers","guid":"3a9e0d26-a693-43aa-a1d3-4af7ecbf5960","$type":"Unity.VisualScripting.ValueConnection"}],"$version":"A"}}'
    _objectReferences: []
